{
    "json": "Invoice",
    "signature":"Siema siema",
    "type":1,
    "date": {
        "json": "InvoiceDate",
        "make_time": 1528647960835,
        "end_time": 1528647960835,
        "pay_time": 1528647960835,
        "num": 1,
        "type": "VAT"
    },
    "seller": {
        "json": "Client",
        "data": [
            "Siema",
            "Siema data"
        ],
        "bank_account": 0
    },
    "buyer": {
        "json": "Client",
        "data": [
            "Siema",
            "Siema data"
        ],
        "bank_account": 0
    },
    "pay_time": 7,
    "pay_jm": "dni",
    "name": "Faktura",
    "city": "Siema",
    "commodity": [
        {
            "json": "Commodity",
            "name": "Siema siema\n ",
            "jm": "siema.",
            "pkwiu": "11",
            "quantity": 1,
            "netto": 111,
            "vat": 0
        }
    ]
}